…
__Filter gapminder so that it shows the max GDP per capita experienced by each country. Hint: you might find the max() function useful here.__

__OR__

__Filter gapminder to contain six rows: the rows with the three largest GDP per capita, and the rows with the three smallest GDP per capita. Be sure to not create any intermediate objects when doing this (with, for example, the assignment operator). Hint: you might find the sort() function useful, or perhaps even the dplyr::slice() function.__


```r
gapminder %>%
  group_by(country) %>%
  filter(gdpPercap == max(gdpPercap))
```

```
## # A tibble: 142 x 6
## # Groups:   country [142]
##    country     continent  year lifeExp       pop gdpPercap
##    <fct>       <fct>     <int>   <dbl>     <int>     <dbl>
##  1 Afghanistan Asia       1982    39.9  12881816      978.
##  2 Albania     Europe     2007    76.4   3600523     5937.
##  3 Algeria     Africa     2007    72.3  33333216     6223.
##  4 Angola      Africa     1967    36.0   5247469     5523.
##  5 Argentina   Americas   2007    75.3  40301927    12779.
##  6 Australia   Oceania    2007    81.2  20434176    34435.
##  7 Austria     Europe     2007    79.8   8199783    36126.
##  8 Bahrain     Asia       2007    75.6    708573    29796.
##  9 Bangladesh  Asia       2007    64.1 150448339     1391.
## 10 Belgium     Europe     2007    79.4  10392226    33693.
## # ... with 132 more rows
```
…
